Preguntas Frecuentes • covidmx
…
## ✔ Desconectado

¿Para qué me sirve la descarga con pins?

El paquete de pins registra una
dirección web y verifica que no haya cambiado el archivo presente en la
dirección antes de descargar de nuevo. Esto te permite no perder tanto
tiempo en la descarga. Ve cómo si descargo una vez y luego una
subsecuente el mismo paquete me advierte que no hace falta pues nada ha
cambiado:

cache_dir <- tempdir()
descarga_datos_red_irag(cache = cache_dir) #Primer intento no dice nada

## # A tibble: 29,362 × 6
##    Estado           Hospitaliza…¹ Venti…² UCI y…³ Fecha      Actualizacion      
##    <chr>                    <dbl>   <dbl>   <dbl> <date>     <dttm>             
##  1 Oaxaca                   100      0       0    2020-04-01 2022-10-17 12:31:02
##  2 Ciudad de México         100     65.8    65.8  2020-04-01 2022-10-17 12:31:02
##  3 México                   100     16.7    33.3  2020-04-01 2022-10-17 12:31:02
##  4 Guanajuato               100      7.69    7.69 2020-04-01 2022-10-17 12:31:02
##  5 Oaxaca                   100      0       8.33 2020-04-02 2022-10-17 12:31:02
##  6 Ciudad de México         100     60.2    61    2020-04-02 2022-10-17 12:31:02
##  7 México                   100     16.7    16.7  2020-04-02 2022-10-17 12:31:02
##  8 Guanajuato               100      8.33    8.33 2020-04-02 2022-10-17 12:31:02
##  9 Oaxaca                   100      0       0    2020-04-03 2022-10-17 12:31:02
## 10 Ciudad de México          43.7   36.8    75    2020-04-03 2022-10-17 12:31:02
## # … with 29,352 more rows, and abbreviated variable names
## #   ¹​`Hospitalizados (%)`, ²​`Ventilación (%)`, ³​`UCI y Ventilación (%)`

descarga_datos_red_irag(cache = cache_dir) #Segundo intento nos dice que ya descargó

## Warning: La descarga mas reciente de fue hace 0.00053 dias. Como tiene menos de un dia
## usare esa. Escribe `force_download = TRUE` si quieres descargar de todas
## formas. Para desactivar este mensaje `show_warnings = FALSE.`

## # A tibble: 29,362 × 6
##    Estado           Hospitaliza…¹ Venti…² UCI y…³ Fecha      Actualizacion      
##    <chr>                    <dbl>   <dbl>   <dbl> <date>     <dttm>             
##  1 Oaxaca                   100      0       0    2020-04-01 2022-10-17 12:31:02
##  2 Ciudad de México         100     65.8    65.8  2020-04-01 2022-10-17 12:31:02
##  3 México                   100     16.7    33.3  2020-04-01 2022-10-17 12:31:02
##  4 Guanajuato               100      7.69    7.69 2020-04-01 2022-10-17 12:31:02
##  5 Oaxaca                   100      0       8.33 2020-04-02 2022-10-17 12:31:02
##  6 Ciudad de México         100     60.2    61    2020-04-02 2022-10-17 12:31:02
##  7 México                   100     16.7    16.7  2020-04-02 2022-10-17 12:31:02
##  8 Guanajuato               100      8.33    8.33 2020-04-02 2022-10-17 12:31:02
##  9 Oaxaca                   100      0       0    2020-04-03 2022-10-17 12:31:02
## 10 Ciudad de México          43.7   36.8    75    2020-04-03 2022-10-17 12:31:02
## # … with 29,352 more rows, and abbreviated variable names
## #   ¹​`Hospitalizados (%)`, ²​`Ventilación (%)`, ³​`UCI y Ventilación (%)`
…
